{
	"id": "e3e51b83-9634-42a4-9364-6d95eb080f89",
	"name": "Production",
	"values": [
		{
			"key": "baseUrl",
			"value": "CarsApi-env.eba-suuyckni.us-east-1.elasticbeanstalk.com",
			"enabled": true
		}
	],
	"_postman_variable_scope": "environment",
	"_postman_exported_at": "2020-09-19T21:30:59.377Z",
	"_postman_exported_using": "Postman/7.32.0"
}